<?xml version="1.0" encoding="utf-8"?>
<!-- Generator: Adobe Illustrator 15.1.0, SVG Export Plug-In . SVG Version: 6.00 Build 0)  -->
<!DOCTYPE svg PUBLIC "-//W3C//DTD SVG 1.1//EN" "http://www.w3.org/Graphics/SVG/1.1/DTD/svg11.dtd">
<svg version="1.1" id="Layer_1" xmlns="http://www.w3.org/2000/svg" xmlns:xlink="http://www.w3.org/1999/xlink" x="0px" y="0px"
	 width="536.091px" height="497.093px" viewBox="0 0 536.091 497.093" enable-background="new 0 0 536.091 497.093"
	 xml:space="preserve">
<polygon fill="#FFFFFF" stroke="#231F20" points="180.166,477.5 51.5,348.834 51.5,167.166 180.166,38.5 361.834,38.5 
	490.5,167.166 490.5,348.834 361.834,477.5 "/>
</svg>
